<svg width="30" height="31" viewBox="0 0 30 31" fill="none" xmlns="http://www.w3.org/2000/svg">
<path d="M26.4844 0.22168H3.51562C1.57711 0.22168 0 1.79879 0 3.7373V26.7061C0 28.6446 1.57711 30.2217 3.51562 30.2217H26.4844C28.4229 30.2217 30 28.6446 30 26.7061V3.7373C30 1.79879 28.4229 0.22168 26.4844 0.22168ZM27.6562 26.7061C27.6562 27.3522 27.1305 27.8779 26.4844 27.8779H19.8047V18.3271H23.4252L24.0234 14.6943H19.8047V12.1748C19.8047 11.1802 20.5679 10.417 21.5625 10.417H23.9648V6.78418H21.5625C18.5787 6.78418 16.1732 9.20117 16.1732 12.185V14.6943H12.6562V18.3271H16.1732V27.8779H3.51562C2.86945 27.8779 2.34375 27.3522 2.34375 26.7061V3.7373C2.34375 3.09113 2.86945 2.56543 3.51562 2.56543H26.4844C27.1305 2.56543 27.6562 3.09113 27.6562 3.7373V26.7061Z" fill="black"/>
</svg>
